# Blender 3.3.0 MTL File: 'reel.blend'
# www.blender.org

newmtl Ratatouille
Ns 250.000000
Ka 1.000000 1.000000 1.000000
Ks 0.500000 0.500000 0.500000
Ke 0.000000 0.000000 0.000000
Ni 1.450000
d 1.000000
illum 2
map_Kd C:/Users/Eleve/Desktop/81+nffcOdHL._AC_SL1500_.jpg

newmtl bobine
Ns 0.000000
Ka 1.000000 1.000000 1.000000
Kd 0.009018 0.009018 0.009018
Ks 0.500000 0.500000 0.500000
Ke 0.000000 0.000000 0.000000
Ni 1.450000
d 1.000000
illum 2

newmtl frames
Ns 250.000000
Ka 1.000000 1.000000 1.000000
Kd 0.059139 0.059139 0.059139
Ks 0.500000 0.500000 0.500000
Ke 0.000000 0.000000 0.000000
Ni 1.450000
d 1.000000
illum 2
