%YAML 1.1
%TAG !u! tag:unity3d.com,2011:
--- !u!162 &1
EditorUserSettings:
  m_ObjectHideFlags: 0
  serializedVersion: 4
  m_ConfigSettings:
    RecentlyUsedSceneGuid-0:
      value: 560702575d025a5a590d087a11270744404e1b7a7b7a2263757c4f62bbb7376a
      flags: 0
    RecentlyUsedSceneGuid-1:
      value: 5202560252035c035f0f5a7141720d44404e412c787976337c2c4d63b5e66c3b
      flags: 0
    RecentlyUsedSceneGuid-2:
      value: 5a04555f000459020c0c5f7641760b44144e19797c2e71347a7f4e6bb5b7326c
      flags: 0
    RecentlyUsedSceneGuid-3:
      value: 51540753570c0d0d0c0d097246735e4447154c72757d7266297b4f63bae53060
      flags: 0
    RecentlyUsedSceneGuid-4:
      value: 51540753570c0d0d0c0d097246735e4447154c72757d7266297b4f63bae53060
      flags: 0
    RecentlyUsedSceneGuid-5:
      value: 5002075f0403510a5e5e087b437a08441316492b792b763378284c65e3b66761
      flags: 0
    RecentlyUsedSceneGuid-6:
      value: 0104515e04505a5e5d5e087712730a444e4f4f7a297e23632c7c486abbb76c6c
      flags: 0
    RecentlyUsedSceneGuid-7:
      value: 5a54045454530d5a540b5d7211760744124f1b78757a2060747b1e61e1b8623d
      flags: 0
    RecentlyUsedSceneGuid-8:
      value: 5505075057570f035d5b5b7047250b44444e4b7a297d7f352e7b1835e3b5606e
      flags: 0
    RecentlyUsedSceneGuid-9:
      value: 01500d5e03075a5a5b0d5572487b5c444516412e747923672c2a1967e6b93261
      flags: 0
    vcSharedLogLevel:
      value: 0d5e400f0650
      flags: 0
  m_VCAutomaticAdd: 1
  m_VCDebugCom: 0
  m_VCDebugCmd: 0
  m_VCDebugOut: 0
  m_SemanticMergeMode: 2
  m_DesiredImportWorkerCount: 2
  m_StandbyImportWorkerCount: 2
  m_IdleImportWorkerShutdownDelay: 60000
  m_VCShowFailedCheckout: 1
  m_VCOverwriteFailedCheckoutAssets: 1
  m_VCProjectOverlayIcons: 1
  m_VCHierarchyOverlayIcons: 1
  m_VCOtherOverlayIcons: 1
  m_VCAllowAsyncUpdate: 1
  m_ArtifactGarbageCollection: 1
